%YAML 1.1
%TAG !u! tag:unity3d.com,2011:
--- !u!114 &11400000
MonoBehaviour:
  m_ObjectHideFlags: 0
  m_CorrespondingSourceObject: {fileID: 0}
  m_PrefabInstance: {fileID: 0}
  m_PrefabAsset: {fileID: 0}
  m_GameObject: {fileID: 0}
  m_Enabled: 1
  m_EditorHideFlags: 0
  m_Script: {fileID: 11500000, guid: fa61363c59c534326b8c2fd8fbb1c9d4, type: 3}
  m_Name: Wave 2
  m_EditorClassIdentifier: 
  enemyPrefab: {fileID: 557845867263347796, guid: 2f162b4d5ecf64464a6b1ea985bed8d9,
    type: 3}
  pathPrefab: {fileID: 1723235100850157948, guid: d3bb88af7ef184876b43c581f0cdeacb,
    type: 3}
  timeBetweenSpawns: 0.5
  spawnRandomFactor: 0.5
  numberOfEnemies: 5
  moveSpeed: 4
