%YAML 1.1
%TAG !u! tag:unity3d.com,2011:
--- !u!29 &1
OcclusionCullingSettings:
  m_ObjectHideFlags: 0
  serializedVersion: 2
  m_OcclusionBakeSettings:
    smallestOccluder: 5
    smallestHole: 0.25
    backfaceThreshold: 100
  m_SceneGUID: 00000000000000000000000000000000
  m_OcclusionCullingData: {fileID: 0}
--- !u!104 &2
RenderSettings:
  m_ObjectHideFlags: 0
  serializedVersion: 9
  m_Fog: 0
  m_FogColor: {r: 0.5, g: 0.5, b: 0.5, a: 1}
  m_FogMode: 3
  m_FogDensity: 0.01
  m_LinearFogStart: 0
  m_LinearFogEnd: 300
  m_AmbientSkyColor: {r: 0.212, g: 0.227, b: 0.259, a: 1}
  m_AmbientEquatorColor: {r: 0.114, g: 0.125, b: 0.133, a: 1}
  m_AmbientGroundColor: {r: 0.047, g: 0.043, b: 0.035, a: 1}
  m_AmbientIntensity: 1
  m_AmbientMode: 3
  m_SubtractiveShadowColor: {r: 0.42, g: 0.478, b: 0.627, a: 1}
  m_SkyboxMaterial: {fileID: 0}
  m_HaloStrength: 0.5
  m_FlareStrength: 1
  m_FlareFadeSpeed: 3
  m_HaloTexture: {fileID: 0}
  m_SpotCookie: {fileID: 10001, guid: 0000000000000000e000000000000000, type: 0}
  m_DefaultReflectionMode: 0
  m_DefaultReflectionResolution: 128
  m_ReflectionBounces: 1
  m_ReflectionIntensity: 1
  m_CustomReflection: {fileID: 0}
  m_Sun: {fileID: 0}
  m_IndirectSpecularColor: {r: 0, g: 0, b: 0, a: 1}
  m_UseRadianceAmbientProbe: 0
--- !u!157 &3
LightmapSettings:
  m_ObjectHideFlags: 0
  serializedVersion: 11
  m_GIWorkflowMode: 1
  m_GISettings:
    serializedVersion: 2
    m_BounceScale: 1
    m_IndirectOutputScale: 1
    m_AlbedoBoost: 1
    m_EnvironmentLightingMode: 0
    m_EnableBakedLightmaps: 0
    m_EnableRealtimeLightmaps: 0
  m_LightmapEditorSettings:
    serializedVersion: 12
    m_Resolution: 2
    m_BakeResolution: 40
    m_AtlasSize: 1024
    m_AO: 0
    m_AOMaxDistance: 1
    m_CompAOExponent: 1
    m_CompAOExponentDirect: 0
    m_ExtractAmbientOcclusion: 0
    m_Padding: 2
    m_LightmapParameters: {fileID: 0}
    m_LightmapsBakeMode: 1
    m_TextureCompression: 1
    m_FinalGather: 0
    m_FinalGatherFiltering: 1
    m_FinalGatherRayCount: 256
    m_ReflectionCompression: 2
    m_MixedBakeMode: 2
    m_BakeBackend: 0
    m_PVRSampling: 1
    m_PVRDirectSampleCount: 32
    m_PVRSampleCount: 500
    m_PVRBounces: 2
    m_PVREnvironmentSampleCount: 500
    m_PVREnvironmentReferencePointCount: 2048
    m_PVRFilteringMode: 2
    m_PVRDenoiserTypeDirect: 0
    m_PVRDenoiserTypeIndirect: 0
    m_PVRDenoiserTypeAO: 0
    m_PVRFilterTypeDirect: 0
    m_PVRFilterTypeIndirect: 0
    m_PVRFilterTypeAO: 0
    m_PVREnvironmentMIS: 0
    m_PVRCulling: 1
    m_PVRFilteringGaussRadiusDirect: 1
    m_PVRFilteringGaussRadiusIndirect: 5
    m_PVRFilteringGaussRadiusAO: 2
    m_PVRFilteringAtrousPositionSigmaDirect: 0.5
    m_PVRFilteringAtrousPositionSigmaIndirect: 2
    m_PVRFilteringAtrousPositionSigmaAO: 1
    m_ExportTrainingData: 0
    m_TrainingDataDestination: TrainingData
    m_LightProbeSampleCountMultiplier: 4
  m_LightingDataAsset: {fileID: 0}
  m_UseShadowmask: 1
--- !u!196 &4
NavMeshSettings:
  serializedVersion: 2
  m_ObjectHideFlags: 0
  m_BuildSettings:
    serializedVersion: 2
    agentTypeID: 0
    agentRadius: 0.5
    agentHeight: 2
    agentSlope: 45
    agentClimb: 0.4
    ledgeDropHeight: 0
    maxJumpAcrossDistance: 0
    minRegionArea: 2
    manualCellSize: 0
    cellSize: 0.16666667
    manualTileSize: 0
    tileSize: 256
    accuratePlacement: 0
    debug:
      m_Flags: 0
  m_NavMeshData: {fileID: 0}
--- !u!1001 &357521263
PrefabInstance:
  m_ObjectHideFlags: 0
  serializedVersion: 2
  m_Modification:
    m_TransformParent: {fileID: 0}
    m_Modifications:
    - target: {fileID: 1248845776, guid: bff5f5c3256f34002b69a1049d15e20c, type: 3}
      propertyPath: m_AnchoredPosition.y
      value: -63.69995
      objectReference: {fileID: 0}
    - target: {fileID: 1248845777, guid: bff5f5c3256f34002b69a1049d15e20c, type: 3}
      propertyPath: m_textInfo.characterCount
      value: 0
      objectReference: {fileID: 0}
    - target: {fileID: 1248845777, guid: bff5f5c3256f34002b69a1049d15e20c, type: 3}
      propertyPath: m_textInfo.wordCount
      value: 0
      objectReference: {fileID: 0}
    - target: {fileID: 1248845777, guid: bff5f5c3256f34002b69a1049d15e20c, type: 3}
      propertyPath: m_textInfo.lineCount
      value: 0
      objectReference: {fileID: 0}
    - target: {fileID: 1248845777, guid: bff5f5c3256f34002b69a1049d15e20c, type: 3}
      propertyPath: m_textInfo.pageCount
      value: 0
      objectReference: {fileID: 0}
    - target: {fileID: 3789768484306740392, guid: bff5f5c3256f34002b69a1049d15e20c,
        type: 3}
      propertyPath: m_textInfo.characterCount
      value: 0
      objectReference: {fileID: 0}
    - target: {fileID: 3789768484306740392, guid: bff5f5c3256f34002b69a1049d15e20c,
        type: 3}
      propertyPath: m_textInfo.wordCount
      value: 0
      objectReference: {fileID: 0}
    - target: {fileID: 3789768484306740392, guid: bff5f5c3256f34002b69a1049d15e20c,
        type: 3}
      propertyPath: m_textInfo.lineCount
      value: 0
      objectReference: {fileID: 0}
    - target: {fileID: 3789768484306740392, guid: bff5f5c3256f34002b69a1049d15e20c,
        type: 3}
      propertyPath: m_textInfo.pageCount
      value: 0
      objectReference: {fileID: 0}
    - target: {fileID: 3789768484306740399, guid: bff5f5c3256f34002b69a1049d15e20c,
        type: 3}
      propertyPath: m_AnchoredPosition.y
      value: -63.69995
      objectReference: {fileID: 0}
    - target: {fileID: 3789768486065790790, guid: bff5f5c3256f34002b69a1049d15e20c,
        type: 3}
      propertyPath: m_LocalPosition.x
      value: 0
      objectReference: {fileID: 0}
    - target: {fileID: 3789768486065790790, guid: bff5f5c3256f34002b69a1049d15e20c,
        type: 3}
      propertyPath: m_LocalPosition.y
      value: 0
      objectReference: {fileID: 0}
    - target: {fileID: 3789768486065790790, guid: bff5f5c3256f34002b69a1049d15e20c,
        type: 3}
      propertyPath: m_LocalPosition.z
      value: 0
      objectReference: {fileID: 0}
    - target: {fileID: 3789768486065790790, guid: bff5f5c3256f34002b69a1049d15e20c,
        type: 3}
      propertyPath: m_LocalRotation.x
      value: 0
      objectReference: {fileID: 0}
    - target: {fileID: 3789768486065790790, guid: bff5f5c3256f34002b69a1049d15e20c,
        type: 3}
      propertyPath: m_LocalRotation.y
      value: 0
      objectReference: {fileID: 0}
    - target: {fileID: 3789768486065790790, guid: bff5f5c3256f34002b69a1049d15e20c,
        type: 3}
      propertyPath: m_LocalRotation.z
      value: 0
      objectReference: {fileID: 0}
    - target: {fileID: 3789768486065790790, guid: bff5f5c3256f34002b69a1049d15e20c,
        type: 3}
      propertyPath: m_LocalRotation.w
      value: 1
      objectReference: {fileID: 0}
    - target: {fileID: 3789768486065790790, guid: bff5f5c3256f34002b69a1049d15e20c,
        type: 3}
      propertyPath: m_RootOrder
      value: 10
      objectReference: {fileID: 0}
    - target: {fileID: 3789768486065790790, guid: bff5f5c3256f34002b69a1049d15e20c,
        type: 3}
      propertyPath: m_LocalEulerAnglesHint.x
      value: 0
      objectReference: {fileID: 0}
    - target: {fileID: 3789768486065790790, guid: bff5f5c3256f34002b69a1049d15e20c,
        type: 3}
      propertyPath: m_LocalEulerAnglesHint.y
      value: 0
      objectReference: {fileID: 0}
    - target: {fileID: 3789768486065790790, guid: bff5f5c3256f34002b69a1049d15e20c,
        type: 3}
      propertyPath: m_LocalEulerAnglesHint.z
      value: 0
      objectReference: {fileID: 0}
    - target: {fileID: 3789768486065790790, guid: bff5f5c3256f34002b69a1049d15e20c,
        type: 3}
      propertyPath: m_AnchoredPosition.x
      value: 0
      objectReference: {fileID: 0}
    - target: {fileID: 3789768486065790790, guid: bff5f5c3256f34002b69a1049d15e20c,
        type: 3}
      propertyPath: m_AnchoredPosition.y
      value: 0
      objectReference: {fileID: 0}
    - target: {fileID: 3789768486065790790, guid: bff5f5c3256f34002b69a1049d15e20c,
        type: 3}
      propertyPath: m_SizeDelta.x
      value: 0
      objectReference: {fileID: 0}
    - target: {fileID: 3789768486065790790, guid: bff5f5c3256f34002b69a1049d15e20c,
        type: 3}
      propertyPath: m_SizeDelta.y
      value: 0
      objectReference: {fileID: 0}
    - target: {fileID: 3789768486065790790, guid: bff5f5c3256f34002b69a1049d15e20c,
        type: 3}
      propertyPath: m_AnchorMin.x
      value: 0
      objectReference: {fileID: 0}
    - target: {fileID: 3789768486065790790, guid: bff5f5c3256f34002b69a1049d15e20c,
        type: 3}
      propertyPath: m_AnchorMin.y
      value: 0
      objectReference: {fileID: 0}
    - target: {fileID: 3789768486065790790, guid: bff5f5c3256f34002b69a1049d15e20c,
        type: 3}
      propertyPath: m_AnchorMax.x
      value: 0
      objectReference: {fileID: 0}
    - target: {fileID: 3789768486065790790, guid: bff5f5c3256f34002b69a1049d15e20c,
        type: 3}
      propertyPath: m_AnchorMax.y
      value: 0
      objectReference: {fileID: 0}
    - target: {fileID: 3789768486065790790, guid: bff5f5c3256f34002b69a1049d15e20c,
        type: 3}
      propertyPath: m_Pivot.x
      value: 0
      objectReference: {fileID: 0}
    - target: {fileID: 3789768486065790790, guid: bff5f5c3256f34002b69a1049d15e20c,
        type: 3}
      propertyPath: m_Pivot.y
      value: 0
      objectReference: {fileID: 0}
    - target: {fileID: 3789768486065790793, guid: bff5f5c3256f34002b69a1049d15e20c,
        type: 3}
      propertyPath: m_Name
      value: Game Canvas
      objectReference: {fileID: 0}
    m_RemovedComponents: []
  m_SourcePrefab: {fileID: 100100000, guid: bff5f5c3256f34002b69a1049d15e20c, type: 3}
--- !u!1 &720825308
GameObject:
  m_ObjectHideFlags: 0
  m_CorrespondingSourceObject: {fileID: 0}
  m_PrefabInstance: {fileID: 0}
  m_PrefabAsset: {fileID: 0}
  serializedVersion: 6
  m_Component:
  - component: {fileID: 720825311}
  - component: {fileID: 720825310}
  - component: {fileID: 720825309}
  m_Layer: 0
  m_Name: EventSystem
  m_TagString: Untagged
  m_Icon: {fileID: 0}
  m_NavMeshLayer: 0
  m_StaticEditorFlags: 0
  m_IsActive: 1
--- !u!114 &720825309
MonoBehaviour:
  m_ObjectHideFlags: 0
  m_CorrespondingSourceObject: {fileID: 0}
  m_PrefabInstance: {fileID: 0}
  m_PrefabAsset: {fileID: 0}
  m_GameObject: {fileID: 720825308}
  m_Enabled: 1
  m_EditorHideFlags: 0
  m_Script: {fileID: 11500000, guid: 4f231c4fb786f3946a6b90b886c48677, type: 3}
  m_Name: 
  m_EditorClassIdentifier: 
  m_HorizontalAxis: Horizontal
  m_VerticalAxis: Vertical
  m_SubmitButton: Submit
  m_CancelButton: Cancel
  m_InputActionsPerSecond: 10
  m_RepeatDelay: 0.5
  m_ForceModuleActive: 0
--- !u!114 &720825310
MonoBehaviour:
  m_ObjectHideFlags: 0
  m_CorrespondingSourceObject: {fileID: 0}
  m_PrefabInstance: {fileID: 0}
  m_PrefabAsset: {fileID: 0}
  m_GameObject: {fileID: 720825308}
  m_Enabled: 1
  m_EditorHideFlags: 0
  m_Script: {fileID: 11500000, guid: 76c392e42b5098c458856cdf6ecaaaa1, type: 3}
  m_Name: 
  m_EditorClassIdentifier: 
  m_FirstSelected: {fileID: 0}
  m_sendNavigationEvents: 1
  m_DragThreshold: 10
--- !u!4 &720825311
Transform:
  m_ObjectHideFlags: 0
  m_CorrespondingSourceObject: {fileID: 0}
  m_PrefabInstance: {fileID: 0}
  m_PrefabAsset: {fileID: 0}
  m_GameObject: {fileID: 720825308}
  m_LocalRotation: {x: 0, y: 0, z: 0, w: 1}
  m_LocalPosition: {x: 0, y: 0, z: 0}
  m_LocalScale: {x: 1, y: 1, z: 1}
  m_Children: []
  m_Father: {fileID: 0}
  m_RootOrder: 2
  m_LocalEulerAnglesHint: {x: 0, y: 0, z: 0}
--- !u!1001 &1686892025
PrefabInstance:
  m_ObjectHideFlags: 0
  serializedVersion: 2
  m_Modification:
    m_TransformParent: {fileID: 0}
    m_Modifications:
    - target: {fileID: 1331631917399612064, guid: 0edec4a7c1b49429db49bbd80422e2d2,
        type: 3}
      propertyPath: m_Offset.x
      value: 0.044631958
      objectReference: {fileID: 0}
    - target: {fileID: 1331631917399612064, guid: 0edec4a7c1b49429db49bbd80422e2d2,
        type: 3}
      propertyPath: m_Size.x
      value: 11.140551
      objectReference: {fileID: 0}
    - target: {fileID: 1331631917399612064, guid: 0edec4a7c1b49429db49bbd80422e2d2,
        type: 3}
      propertyPath: m_Offset.y
      value: -0.33076143
      objectReference: {fileID: 0}
    - target: {fileID: 1331631917399612064, guid: 0edec4a7c1b49429db49bbd80422e2d2,
        type: 3}
      propertyPath: m_Size.y
      value: 0.33847713
      objectReference: {fileID: 0}
    - target: {fileID: 4024282441838093718, guid: 0edec4a7c1b49429db49bbd80422e2d2,
        type: 3}
      propertyPath: m_Name
      value: EnemyLaserShredder
      objectReference: {fileID: 0}
    - target: {fileID: 4439424451211208560, guid: 0edec4a7c1b49429db49bbd80422e2d2,
        type: 3}
      propertyPath: m_LocalPosition.x
      value: 0
      objectReference: {fileID: 0}
    - target: {fileID: 4439424451211208560, guid: 0edec4a7c1b49429db49bbd80422e2d2,
        type: 3}
      propertyPath: m_LocalPosition.y
      value: -7.94
      objectReference: {fileID: 0}
    - target: {fileID: 4439424451211208560, guid: 0edec4a7c1b49429db49bbd80422e2d2,
        type: 3}
      propertyPath: m_LocalPosition.z
      value: 0
      objectReference: {fileID: 0}
    - target: {fileID: 4439424451211208560, guid: 0edec4a7c1b49429db49bbd80422e2d2,
        type: 3}
      propertyPath: m_LocalRotation.x
      value: 0
      objectReference: {fileID: 0}
    - target: {fileID: 4439424451211208560, guid: 0edec4a7c1b49429db49bbd80422e2d2,
        type: 3}
      propertyPath: m_LocalRotation.y
      value: 0
      objectReference: {fileID: 0}
    - target: {fileID: 4439424451211208560, guid: 0edec4a7c1b49429db49bbd80422e2d2,
        type: 3}
      propertyPath: m_LocalRotation.z
      value: 0
      objectReference: {fileID: 0}
    - target: {fileID: 4439424451211208560, guid: 0edec4a7c1b49429db49bbd80422e2d2,
        type: 3}
      propertyPath: m_LocalRotation.w
      value: 1
      objectReference: {fileID: 0}
    - target: {fileID: 4439424451211208560, guid: 0edec4a7c1b49429db49bbd80422e2d2,
        type: 3}
      propertyPath: m_RootOrder
      value: 7
      objectReference: {fileID: 0}
    - target: {fileID: 4439424451211208560, guid: 0edec4a7c1b49429db49bbd80422e2d2,
        type: 3}
      propertyPath: m_LocalEulerAnglesHint.x
      value: 0
      objectReference: {fileID: 0}
    - target: {fileID: 4439424451211208560, guid: 0edec4a7c1b49429db49bbd80422e2d2,
        type: 3}
      propertyPath: m_LocalEulerAnglesHint.y
      value: 0
      objectReference: {fileID: 0}
    - target: {fileID: 4439424451211208560, guid: 0edec4a7c1b49429db49bbd80422e2d2,
        type: 3}
      propertyPath: m_LocalEulerAnglesHint.z
      value: 0
      objectReference: {fileID: 0}
    m_RemovedComponents: []
  m_SourcePrefab: {fileID: 100100000, guid: 0edec4a7c1b49429db49bbd80422e2d2, type: 3}
--- !u!1001 &749143977402632918
PrefabInstance:
  m_ObjectHideFlags: 0
  serializedVersion: 2
  m_Modification:
    m_TransformParent: {fileID: 0}
    m_Modifications:
    - target: {fileID: 7874865597055871321, guid: 49b04ef3dc9b446deab786f8ce556ae2,
        type: 3}
      propertyPath: m_Name
      value: Path3
      objectReference: {fileID: 0}
    - target: {fileID: 7874865597055871326, guid: 49b04ef3dc9b446deab786f8ce556ae2,
        type: 3}
      propertyPath: m_LocalPosition.x
      value: 0
      objectReference: {fileID: 0}
    - target: {fileID: 7874865597055871326, guid: 49b04ef3dc9b446deab786f8ce556ae2,
        type: 3}
      propertyPath: m_LocalPosition.y
      value: 0
      objectReference: {fileID: 0}
    - target: {fileID: 7874865597055871326, guid: 49b04ef3dc9b446deab786f8ce556ae2,
        type: 3}
      propertyPath: m_LocalPosition.z
      value: 0
      objectReference: {fileID: 0}
    - target: {fileID: 7874865597055871326, guid: 49b04ef3dc9b446deab786f8ce556ae2,
        type: 3}
      propertyPath: m_LocalRotation.x
      value: 0
      objectReference: {fileID: 0}
    - target: {fileID: 7874865597055871326, guid: 49b04ef3dc9b446deab786f8ce556ae2,
        type: 3}
      propertyPath: m_LocalRotation.y
      value: 0
      objectReference: {fileID: 0}
    - target: {fileID: 7874865597055871326, guid: 49b04ef3dc9b446deab786f8ce556ae2,
        type: 3}
      propertyPath: m_LocalRotation.z
      value: 0
      objectReference: {fileID: 0}
    - target: {fileID: 7874865597055871326, guid: 49b04ef3dc9b446deab786f8ce556ae2,
        type: 3}
      propertyPath: m_LocalRotation.w
      value: 1
      objectReference: {fileID: 0}
    - target: {fileID: 7874865597055871326, guid: 49b04ef3dc9b446deab786f8ce556ae2,
        type: 3}
      propertyPath: m_RootOrder
      value: 13
      objectReference: {fileID: 0}
    - target: {fileID: 7874865597055871326, guid: 49b04ef3dc9b446deab786f8ce556ae2,
        type: 3}
      propertyPath: m_LocalEulerAnglesHint.x
      value: 0
      objectReference: {fileID: 0}
    - target: {fileID: 7874865597055871326, guid: 49b04ef3dc9b446deab786f8ce556ae2,
        type: 3}
      propertyPath: m_LocalEulerAnglesHint.y
      value: 0
      objectReference: {fileID: 0}
    - target: {fileID: 7874865597055871326, guid: 49b04ef3dc9b446deab786f8ce556ae2,
        type: 3}
      propertyPath: m_LocalEulerAnglesHint.z
      value: 0
      objectReference: {fileID: 0}
    m_RemovedComponents: []
  m_SourcePrefab: {fileID: 100100000, guid: 49b04ef3dc9b446deab786f8ce556ae2, type: 3}
--- !u!1001 &1723235100810033759
PrefabInstance:
  m_ObjectHideFlags: 0
  serializedVersion: 2
  m_Modification:
    m_TransformParent: {fileID: 0}
    m_Modifications:
    - target: {fileID: 1723235100850157947, guid: d3bb88af7ef184876b43c581f0cdeacb,
        type: 3}
      propertyPath: m_LocalPosition.x
      value: 0
      objectReference: {fileID: 0}
    - target: {fileID: 1723235100850157947, guid: d3bb88af7ef184876b43c581f0cdeacb,
        type: 3}
      propertyPath: m_LocalPosition.y
      value: 0
      objectReference: {fileID: 0}
    - target: {fileID: 1723235100850157947, guid: d3bb88af7ef184876b43c581f0cdeacb,
        type: 3}
      propertyPath: m_LocalPosition.z
      value: 0
      objectReference: {fileID: 0}
    - target: {fileID: 1723235100850157947, guid: d3bb88af7ef184876b43c581f0cdeacb,
        type: 3}
      propertyPath: m_LocalRotation.x
      value: 0
      objectReference: {fileID: 0}
    - target: {fileID: 1723235100850157947, guid: d3bb88af7ef184876b43c581f0cdeacb,
        type: 3}
      propertyPath: m_LocalRotation.y
      value: 0
      objectReference: {fileID: 0}
    - target: {fileID: 1723235100850157947, guid: d3bb88af7ef184876b43c581f0cdeacb,
        type: 3}
      propertyPath: m_LocalRotation.z
      value: 0
      objectReference: {fileID: 0}
    - target: {fileID: 1723235100850157947, guid: d3bb88af7ef184876b43c581f0cdeacb,
        type: 3}
      propertyPath: m_LocalRotation.w
      value: 1
      objectReference: {fileID: 0}
    - target: {fileID: 1723235100850157947, guid: d3bb88af7ef184876b43c581f0cdeacb,
        type: 3}
      propertyPath: m_RootOrder
      value: 12
      objectReference: {fileID: 0}
    - target: {fileID: 1723235100850157947, guid: d3bb88af7ef184876b43c581f0cdeacb,
        type: 3}
      propertyPath: m_LocalEulerAnglesHint.x
      value: 0
      objectReference: {fileID: 0}
    - target: {fileID: 1723235100850157947, guid: d3bb88af7ef184876b43c581f0cdeacb,
        type: 3}
      propertyPath: m_LocalEulerAnglesHint.y
      value: 0
      objectReference: {fileID: 0}
    - target: {fileID: 1723235100850157947, guid: d3bb88af7ef184876b43c581f0cdeacb,
        type: 3}
      propertyPath: m_LocalEulerAnglesHint.z
      value: 0
      objectReference: {fileID: 0}
    - target: {fileID: 1723235100850157948, guid: d3bb88af7ef184876b43c581f0cdeacb,
        type: 3}
      propertyPath: m_Name
      value: Path2
      objectReference: {fileID: 0}
    m_RemovedComponents: []
  m_SourcePrefab: {fileID: 100100000, guid: d3bb88af7ef184876b43c581f0cdeacb, type: 3}
--- !u!1001 &1935026395498347283
PrefabInstance:
  m_ObjectHideFlags: 0
  serializedVersion: 2
  m_Modification:
    m_TransformParent: {fileID: 0}
    m_Modifications:
    - target: {fileID: 1935026395394242537, guid: 690cb3808d6834b51a9146ca2f93bc86,
        type: 3}
      propertyPath: m_Name
      value: BackgroundQuad
      objectReference: {fileID: 0}
    - target: {fileID: 1935026395394242542, guid: 690cb3808d6834b51a9146ca2f93bc86,
        type: 3}
      propertyPath: m_LocalPosition.x
      value: 0.02
      objectReference: {fileID: 0}
    - target: {fileID: 1935026395394242542, guid: 690cb3808d6834b51a9146ca2f93bc86,
        type: 3}
      propertyPath: m_LocalPosition.y
      value: -1.186
      objectReference: {fileID: 0}
    - target: {fileID: 1935026395394242542, guid: 690cb3808d6834b51a9146ca2f93bc86,
        type: 3}
      propertyPath: m_LocalPosition.z
      value: 30.4
      objectReference: {fileID: 0}
    - target: {fileID: 1935026395394242542, guid: 690cb3808d6834b51a9146ca2f93bc86,
        type: 3}
      propertyPath: m_LocalRotation.x
      value: 0
      objectReference: {fileID: 0}
    - target: {fileID: 1935026395394242542, guid: 690cb3808d6834b51a9146ca2f93bc86,
        type: 3}
      propertyPath: m_LocalRotation.y
      value: 0
      objectReference: {fileID: 0}
    - target: {fileID: 1935026395394242542, guid: 690cb3808d6834b51a9146ca2f93bc86,
        type: 3}
      propertyPath: m_LocalRotation.z
      value: 0
      objectReference: {fileID: 0}
    - target: {fileID: 1935026395394242542, guid: 690cb3808d6834b51a9146ca2f93bc86,
        type: 3}
      propertyPath: m_LocalRotation.w
      value: 1
      objectReference: {fileID: 0}
    - target: {fileID: 1935026395394242542, guid: 690cb3808d6834b51a9146ca2f93bc86,
        type: 3}
      propertyPath: m_RootOrder
      value: 1
      objectReference: {fileID: 0}
    - target: {fileID: 1935026395394242542, guid: 690cb3808d6834b51a9146ca2f93bc86,
        type: 3}
      propertyPath: m_LocalEulerAnglesHint.x
      value: 0
      objectReference: {fileID: 0}
    - target: {fileID: 1935026395394242542, guid: 690cb3808d6834b51a9146ca2f93bc86,
        type: 3}
      propertyPath: m_LocalEulerAnglesHint.y
      value: 0
      objectReference: {fileID: 0}
    - target: {fileID: 1935026395394242542, guid: 690cb3808d6834b51a9146ca2f93bc86,
        type: 3}
      propertyPath: m_LocalEulerAnglesHint.z
      value: 0
      objectReference: {fileID: 0}
    m_RemovedComponents: []
  m_SourcePrefab: {fileID: 100100000, guid: 690cb3808d6834b51a9146ca2f93bc86, type: 3}
--- !u!1001 &2178038684265711743
PrefabInstance:
  m_ObjectHideFlags: 0
  serializedVersion: 2
  m_Modification:
    m_TransformParent: {fileID: 0}
    m_Modifications:
    - target: {fileID: 4123202728661512079, guid: 5b3ebc2b6aeb541f79ac0b61f6463a61,
        type: 3}
      propertyPath: m_Name
      value: MusicPlayer
      objectReference: {fileID: 0}
    - target: {fileID: 5772789499533292087, guid: 5b3ebc2b6aeb541f79ac0b61f6463a61,
        type: 3}
      propertyPath: m_LocalPosition.x
      value: 0
      objectReference: {fileID: 0}
    - target: {fileID: 5772789499533292087, guid: 5b3ebc2b6aeb541f79ac0b61f6463a61,
        type: 3}
      propertyPath: m_LocalPosition.y
      value: 0
      objectReference: {fileID: 0}
    - target: {fileID: 5772789499533292087, guid: 5b3ebc2b6aeb541f79ac0b61f6463a61,
        type: 3}
      propertyPath: m_LocalPosition.z
      value: 0
      objectReference: {fileID: 0}
    - target: {fileID: 5772789499533292087, guid: 5b3ebc2b6aeb541f79ac0b61f6463a61,
        type: 3}
      propertyPath: m_LocalRotation.x
      value: 0
      objectReference: {fileID: 0}
    - target: {fileID: 5772789499533292087, guid: 5b3ebc2b6aeb541f79ac0b61f6463a61,
        type: 3}
      propertyPath: m_LocalRotation.y
      value: 0
      objectReference: {fileID: 0}
    - target: {fileID: 5772789499533292087, guid: 5b3ebc2b6aeb541f79ac0b61f6463a61,
        type: 3}
      propertyPath: m_LocalRotation.z
      value: 0
      objectReference: {fileID: 0}
    - target: {fileID: 5772789499533292087, guid: 5b3ebc2b6aeb541f79ac0b61f6463a61,
        type: 3}
      propertyPath: m_LocalRotation.w
      value: 1
      objectReference: {fileID: 0}
    - target: {fileID: 5772789499533292087, guid: 5b3ebc2b6aeb541f79ac0b61f6463a61,
        type: 3}
      propertyPath: m_RootOrder
      value: 8
      objectReference: {fileID: 0}
    - target: {fileID: 5772789499533292087, guid: 5b3ebc2b6aeb541f79ac0b61f6463a61,
        type: 3}
      propertyPath: m_LocalEulerAnglesHint.x
      value: 0
      objectReference: {fileID: 0}
    - target: {fileID: 5772789499533292087, guid: 5b3ebc2b6aeb541f79ac0b61f6463a61,
        type: 3}
      propertyPath: m_LocalEulerAnglesHint.y
      value: 0
      objectReference: {fileID: 0}
    - target: {fileID: 5772789499533292087, guid: 5b3ebc2b6aeb541f79ac0b61f6463a61,
        type: 3}
      propertyPath: m_LocalEulerAnglesHint.z
      value: 0
      objectReference: {fileID: 0}
    m_RemovedComponents: []
  m_SourcePrefab: {fileID: 100100000, guid: 5b3ebc2b6aeb541f79ac0b61f6463a61, type: 3}
--- !u!1001 &3261763125985856936
PrefabInstance:
  m_ObjectHideFlags: 0
  serializedVersion: 2
  m_Modification:
    m_TransformParent: {fileID: 0}
    m_Modifications:
    - target: {fileID: 3261763126385072051, guid: a27c11cedaaab43dcb37bed31a8a2e78,
        type: 3}
      propertyPath: m_Name
      value: Player
      objectReference: {fileID: 0}
    - target: {fileID: 3261763126385072053, guid: a27c11cedaaab43dcb37bed31a8a2e78,
        type: 3}
      propertyPath: m_LocalPosition.x
      value: 0
      objectReference: {fileID: 0}
    - target: {fileID: 3261763126385072053, guid: a27c11cedaaab43dcb37bed31a8a2e78,
        type: 3}
      propertyPath: m_LocalPosition.y
      value: -6.27
      objectReference: {fileID: 0}
    - target: {fileID: 3261763126385072053, guid: a27c11cedaaab43dcb37bed31a8a2e78,
        type: 3}
      propertyPath: m_LocalPosition.z
      value: 0
      objectReference: {fileID: 0}
    - target: {fileID: 3261763126385072053, guid: a27c11cedaaab43dcb37bed31a8a2e78,
        type: 3}
      propertyPath: m_LocalRotation.x
      value: 0
      objectReference: {fileID: 0}
    - target: {fileID: 3261763126385072053, guid: a27c11cedaaab43dcb37bed31a8a2e78,
        type: 3}
      propertyPath: m_LocalRotation.y
      value: 0
      objectReference: {fileID: 0}
    - target: {fileID: 3261763126385072053, guid: a27c11cedaaab43dcb37bed31a8a2e78,
        type: 3}
      propertyPath: m_LocalRotation.z
      value: 0
      objectReference: {fileID: 0}
    - target: {fileID: 3261763126385072053, guid: a27c11cedaaab43dcb37bed31a8a2e78,
        type: 3}
      propertyPath: m_LocalRotation.w
      value: 1
      objectReference: {fileID: 0}
    - target: {fileID: 3261763126385072053, guid: a27c11cedaaab43dcb37bed31a8a2e78,
        type: 3}
      propertyPath: m_RootOrder
      value: 3
      objectReference: {fileID: 0}
    - target: {fileID: 3261763126385072053, guid: a27c11cedaaab43dcb37bed31a8a2e78,
        type: 3}
      propertyPath: m_LocalEulerAnglesHint.x
      value: 0
      objectReference: {fileID: 0}
    - target: {fileID: 3261763126385072053, guid: a27c11cedaaab43dcb37bed31a8a2e78,
        type: 3}
      propertyPath: m_LocalEulerAnglesHint.y
      value: 0
      objectReference: {fileID: 0}
    - target: {fileID: 3261763126385072053, guid: a27c11cedaaab43dcb37bed31a8a2e78,
        type: 3}
      propertyPath: m_LocalEulerAnglesHint.z
      value: 0
      objectReference: {fileID: 0}
    m_RemovedComponents: []
  m_SourcePrefab: {fileID: 100100000, guid: a27c11cedaaab43dcb37bed31a8a2e78, type: 3}
--- !u!1001 &3678323187130688833
PrefabInstance:
  m_ObjectHideFlags: 0
  serializedVersion: 2
  m_Modification:
    m_TransformParent: {fileID: 0}
    m_Modifications:
    - target: {fileID: 3678323186777480509, guid: fdfd4e1397d674199a38dd4dc086f842,
        type: 3}
      propertyPath: m_Name
      value: Main Camera
      objectReference: {fileID: 0}
    - target: {fileID: 3678323186777480641, guid: fdfd4e1397d674199a38dd4dc086f842,
        type: 3}
      propertyPath: m_LocalPosition.x
      value: 0
      objectReference: {fileID: 0}
    - target: {fileID: 3678323186777480641, guid: fdfd4e1397d674199a38dd4dc086f842,
        type: 3}
      propertyPath: m_LocalPosition.y
      value: 0
      objectReference: {fileID: 0}
    - target: {fileID: 3678323186777480641, guid: fdfd4e1397d674199a38dd4dc086f842,
        type: 3}
      propertyPath: m_LocalPosition.z
      value: -17.5
      objectReference: {fileID: 0}
    - target: {fileID: 3678323186777480641, guid: fdfd4e1397d674199a38dd4dc086f842,
        type: 3}
      propertyPath: m_LocalRotation.x
      value: 0
      objectReference: {fileID: 0}
    - target: {fileID: 3678323186777480641, guid: fdfd4e1397d674199a38dd4dc086f842,
        type: 3}
      propertyPath: m_LocalRotation.y
      value: 0
      objectReference: {fileID: 0}
    - target: {fileID: 3678323186777480641, guid: fdfd4e1397d674199a38dd4dc086f842,
        type: 3}
      propertyPath: m_LocalRotation.z
      value: 0
      objectReference: {fileID: 0}
    - target: {fileID: 3678323186777480641, guid: fdfd4e1397d674199a38dd4dc086f842,
        type: 3}
      propertyPath: m_LocalRotation.w
      value: 1
      objectReference: {fileID: 0}
    - target: {fileID: 3678323186777480641, guid: fdfd4e1397d674199a38dd4dc086f842,
        type: 3}
      propertyPath: m_RootOrder
      value: 0
      objectReference: {fileID: 0}
    - target: {fileID: 3678323186777480641, guid: fdfd4e1397d674199a38dd4dc086f842,
        type: 3}
      propertyPath: m_LocalEulerAnglesHint.x
      value: 0
      objectReference: {fileID: 0}
    - target: {fileID: 3678323186777480641, guid: fdfd4e1397d674199a38dd4dc086f842,
        type: 3}
      propertyPath: m_LocalEulerAnglesHint.y
      value: 0
      objectReference: {fileID: 0}
    - target: {fileID: 3678323186777480641, guid: fdfd4e1397d674199a38dd4dc086f842,
        type: 3}
      propertyPath: m_LocalEulerAnglesHint.z
      value: 0
      objectReference: {fileID: 0}
    m_RemovedComponents: []
  m_SourcePrefab: {fileID: 100100000, guid: fdfd4e1397d674199a38dd4dc086f842, type: 3}
--- !u!1001 &4738092467538986901
PrefabInstance:
  m_ObjectHideFlags: 0
  serializedVersion: 2
  m_Modification:
    m_TransformParent: {fileID: 0}
    m_Modifications:
    - target: {fileID: 4738092466834058093, guid: 46e1c81cebf034f97b7e522f182ef1e9,
        type: 3}
      propertyPath: m_Name
      value: GameSession
      objectReference: {fileID: 0}
    - target: {fileID: 4738092466834058095, guid: 46e1c81cebf034f97b7e522f182ef1e9,
        type: 3}
      propertyPath: m_LocalPosition.x
      value: 0
      objectReference: {fileID: 0}
    - target: {fileID: 4738092466834058095, guid: 46e1c81cebf034f97b7e522f182ef1e9,
        type: 3}
      propertyPath: m_LocalPosition.y
      value: 0
      objectReference: {fileID: 0}
    - target: {fileID: 4738092466834058095, guid: 46e1c81cebf034f97b7e522f182ef1e9,
        type: 3}
      propertyPath: m_LocalPosition.z
      value: 0
      objectReference: {fileID: 0}
    - target: {fileID: 4738092466834058095, guid: 46e1c81cebf034f97b7e522f182ef1e9,
        type: 3}
      propertyPath: m_LocalRotation.x
      value: 0
      objectReference: {fileID: 0}
    - target: {fileID: 4738092466834058095, guid: 46e1c81cebf034f97b7e522f182ef1e9,
        type: 3}
      propertyPath: m_LocalRotation.y
      value: 0
      objectReference: {fileID: 0}
    - target: {fileID: 4738092466834058095, guid: 46e1c81cebf034f97b7e522f182ef1e9,
        type: 3}
      propertyPath: m_LocalRotation.z
      value: 0
      objectReference: {fileID: 0}
    - target: {fileID: 4738092466834058095, guid: 46e1c81cebf034f97b7e522f182ef1e9,
        type: 3}
      propertyPath: m_LocalRotation.w
      value: 1
      objectReference: {fileID: 0}
    - target: {fileID: 4738092466834058095, guid: 46e1c81cebf034f97b7e522f182ef1e9,
        type: 3}
      propertyPath: m_RootOrder
      value: 9
      objectReference: {fileID: 0}
    - target: {fileID: 4738092466834058095, guid: 46e1c81cebf034f97b7e522f182ef1e9,
        type: 3}
      propertyPath: m_LocalEulerAnglesHint.x
      value: 0
      objectReference: {fileID: 0}
    - target: {fileID: 4738092466834058095, guid: 46e1c81cebf034f97b7e522f182ef1e9,
        type: 3}
      propertyPath: m_LocalEulerAnglesHint.y
      value: 0
      objectReference: {fileID: 0}
    - target: {fileID: 4738092466834058095, guid: 46e1c81cebf034f97b7e522f182ef1e9,
        type: 3}
      propertyPath: m_LocalEulerAnglesHint.z
      value: 0
      objectReference: {fileID: 0}
    m_RemovedComponents: []
  m_SourcePrefab: {fileID: 100100000, guid: 46e1c81cebf034f97b7e522f182ef1e9, type: 3}
--- !u!1001 &5167627200601800372
PrefabInstance:
  m_ObjectHideFlags: 0
  serializedVersion: 2
  m_Modification:
    m_TransformParent: {fileID: 0}
    m_Modifications:
    - target: {fileID: 5167627199606103763, guid: 9167a2651a2b9470fadecbc3995db795,
        type: 3}
      propertyPath: m_Name
      value: EnemySpawner
      objectReference: {fileID: 0}
    - target: {fileID: 5167627199606103773, guid: 9167a2651a2b9470fadecbc3995db795,
        type: 3}
      propertyPath: m_LocalPosition.x
      value: 0
      objectReference: {fileID: 0}
    - target: {fileID: 5167627199606103773, guid: 9167a2651a2b9470fadecbc3995db795,
        type: 3}
      propertyPath: m_LocalPosition.y
      value: 0
      objectReference: {fileID: 0}
    - target: {fileID: 5167627199606103773, guid: 9167a2651a2b9470fadecbc3995db795,
        type: 3}
      propertyPath: m_LocalPosition.z
      value: 0
      objectReference: {fileID: 0}
    - target: {fileID: 5167627199606103773, guid: 9167a2651a2b9470fadecbc3995db795,
        type: 3}
      propertyPath: m_LocalRotation.x
      value: 0
      objectReference: {fileID: 0}
    - target: {fileID: 5167627199606103773, guid: 9167a2651a2b9470fadecbc3995db795,
        type: 3}
      propertyPath: m_LocalRotation.y
      value: 0
      objectReference: {fileID: 0}
    - target: {fileID: 5167627199606103773, guid: 9167a2651a2b9470fadecbc3995db795,
        type: 3}
      propertyPath: m_LocalRotation.z
      value: 0
      objectReference: {fileID: 0}
    - target: {fileID: 5167627199606103773, guid: 9167a2651a2b9470fadecbc3995db795,
        type: 3}
      propertyPath: m_LocalRotation.w
      value: 1
      objectReference: {fileID: 0}
    - target: {fileID: 5167627199606103773, guid: 9167a2651a2b9470fadecbc3995db795,
        type: 3}
      propertyPath: m_RootOrder
      value: 4
      objectReference: {fileID: 0}
    - target: {fileID: 5167627199606103773, guid: 9167a2651a2b9470fadecbc3995db795,
        type: 3}
      propertyPath: m_LocalEulerAnglesHint.x
      value: 0
      objectReference: {fileID: 0}
    - target: {fileID: 5167627199606103773, guid: 9167a2651a2b9470fadecbc3995db795,
        type: 3}
      propertyPath: m_LocalEulerAnglesHint.y
      value: 0
      objectReference: {fileID: 0}
    - target: {fileID: 5167627199606103773, guid: 9167a2651a2b9470fadecbc3995db795,
        type: 3}
      propertyPath: m_LocalEulerAnglesHint.z
      value: 0
      objectReference: {fileID: 0}
    m_RemovedComponents: []
  m_SourcePrefab: {fileID: 100100000, guid: 9167a2651a2b9470fadecbc3995db795, type: 3}
--- !u!1001 &5799448091893677668
PrefabInstance:
  m_ObjectHideFlags: 0
  serializedVersion: 2
  m_Modification:
    m_TransformParent: {fileID: 0}
    m_Modifications:
    - target: {fileID: 5799448092917390730, guid: 254c2352c2f8f4c1ba30a7fe629d8214,
        type: 3}
      propertyPath: m_Name
      value: StarParticleSystem
      objectReference: {fileID: 0}
    - target: {fileID: 5799448092917390741, guid: 254c2352c2f8f4c1ba30a7fe629d8214,
        type: 3}
      propertyPath: m_LocalPosition.x
      value: 0
      objectReference: {fileID: 0}
    - target: {fileID: 5799448092917390741, guid: 254c2352c2f8f4c1ba30a7fe629d8214,
        type: 3}
      propertyPath: m_LocalPosition.y
      value: 12
      objectReference: {fileID: 0}
    - target: {fileID: 5799448092917390741, guid: 254c2352c2f8f4c1ba30a7fe629d8214,
        type: 3}
      propertyPath: m_LocalPosition.z
      value: -8
      objectReference: {fileID: 0}
    - target: {fileID: 5799448092917390741, guid: 254c2352c2f8f4c1ba30a7fe629d8214,
        type: 3}
      propertyPath: m_LocalRotation.x
      value: -0.7655128
      objectReference: {fileID: 0}
    - target: {fileID: 5799448092917390741, guid: 254c2352c2f8f4c1ba30a7fe629d8214,
        type: 3}
      propertyPath: m_LocalRotation.y
      value: -0
      objectReference: {fileID: 0}
    - target: {fileID: 5799448092917390741, guid: 254c2352c2f8f4c1ba30a7fe629d8214,
        type: 3}
      propertyPath: m_LocalRotation.z
      value: -0
      objectReference: {fileID: 0}
    - target: {fileID: 5799448092917390741, guid: 254c2352c2f8f4c1ba30a7fe629d8214,
        type: 3}
      propertyPath: m_LocalRotation.w
      value: -0.64342064
      objectReference: {fileID: 0}
    - target: {fileID: 5799448092917390741, guid: 254c2352c2f8f4c1ba30a7fe629d8214,
        type: 3}
      propertyPath: m_RootOrder
      value: 5
      objectReference: {fileID: 0}
    - target: {fileID: 5799448092917390741, guid: 254c2352c2f8f4c1ba30a7fe629d8214,
        type: 3}
      propertyPath: m_LocalEulerAnglesHint.x
      value: -260.095
      objectReference: {fileID: 0}
    - target: {fileID: 5799448092917390741, guid: 254c2352c2f8f4c1ba30a7fe629d8214,
        type: 3}
      propertyPath: m_LocalEulerAnglesHint.y
      value: 0
      objectReference: {fileID: 0}
    - target: {fileID: 5799448092917390741, guid: 254c2352c2f8f4c1ba30a7fe629d8214,
        type: 3}
      propertyPath: m_LocalEulerAnglesHint.z
      value: 0
      objectReference: {fileID: 0}
    m_RemovedComponents: []
  m_SourcePrefab: {fileID: 100100000, guid: 254c2352c2f8f4c1ba30a7fe629d8214, type: 3}
--- !u!1001 &6550563245110378149
PrefabInstance:
  m_ObjectHideFlags: 0
  serializedVersion: 2
  m_Modification:
    m_TransformParent: {fileID: 0}
    m_Modifications:
    - target: {fileID: 6550563246288669842, guid: d9af9f53ea2b74985a23eb0b178fbfe3,
        type: 3}
      propertyPath: m_LocalPosition.x
      value: 0
      objectReference: {fileID: 0}
    - target: {fileID: 6550563246288669842, guid: d9af9f53ea2b74985a23eb0b178fbfe3,
        type: 3}
      propertyPath: m_LocalPosition.y
      value: 0
      objectReference: {fileID: 0}
    - target: {fileID: 6550563246288669842, guid: d9af9f53ea2b74985a23eb0b178fbfe3,
        type: 3}
      propertyPath: m_LocalPosition.z
      value: 0
      objectReference: {fileID: 0}
    - target: {fileID: 6550563246288669842, guid: d9af9f53ea2b74985a23eb0b178fbfe3,
        type: 3}
      propertyPath: m_LocalRotation.x
      value: 0
      objectReference: {fileID: 0}
    - target: {fileID: 6550563246288669842, guid: d9af9f53ea2b74985a23eb0b178fbfe3,
        type: 3}
      propertyPath: m_LocalRotation.y
      value: 0
      objectReference: {fileID: 0}
    - target: {fileID: 6550563246288669842, guid: d9af9f53ea2b74985a23eb0b178fbfe3,
        type: 3}
      propertyPath: m_LocalRotation.z
      value: 0
      objectReference: {fileID: 0}
    - target: {fileID: 6550563246288669842, guid: d9af9f53ea2b74985a23eb0b178fbfe3,
        type: 3}
      propertyPath: m_LocalRotation.w
      value: 1
      objectReference: {fileID: 0}
    - target: {fileID: 6550563246288669842, guid: d9af9f53ea2b74985a23eb0b178fbfe3,
        type: 3}
      propertyPath: m_RootOrder
      value: 11
      objectReference: {fileID: 0}
    - target: {fileID: 6550563246288669842, guid: d9af9f53ea2b74985a23eb0b178fbfe3,
        type: 3}
      propertyPath: m_LocalEulerAnglesHint.x
      value: 0
      objectReference: {fileID: 0}
    - target: {fileID: 6550563246288669842, guid: d9af9f53ea2b74985a23eb0b178fbfe3,
        type: 3}
      propertyPath: m_LocalEulerAnglesHint.y
      value: 0
      objectReference: {fileID: 0}
    - target: {fileID: 6550563246288669842, guid: d9af9f53ea2b74985a23eb0b178fbfe3,
        type: 3}
      propertyPath: m_LocalEulerAnglesHint.z
      value: 0
      objectReference: {fileID: 0}
    - target: {fileID: 6550563246288669843, guid: d9af9f53ea2b74985a23eb0b178fbfe3,
        type: 3}
      propertyPath: m_Name
      value: Path1
      objectReference: {fileID: 0}
    m_RemovedComponents: []
  m_SourcePrefab: {fileID: 100100000, guid: d9af9f53ea2b74985a23eb0b178fbfe3, type: 3}
--- !u!1001 &6806253877925075411
PrefabInstance:
  m_ObjectHideFlags: 0
  serializedVersion: 2
  m_Modification:
    m_TransformParent: {fileID: 0}
    m_Modifications:
    - target: {fileID: 1331631917399612064, guid: 0edec4a7c1b49429db49bbd80422e2d2,
        type: 3}
      propertyPath: m_Offset.x
      value: 0.008318901
      objectReference: {fileID: 0}
    - target: {fileID: 1331631917399612064, guid: 0edec4a7c1b49429db49bbd80422e2d2,
        type: 3}
      propertyPath: m_Size.x
      value: 11.160923
      objectReference: {fileID: 0}
    - target: {fileID: 1331631917399612064, guid: 0edec4a7c1b49429db49bbd80422e2d2,
        type: 3}
      propertyPath: m_Offset.y
      value: -0.33076143
      objectReference: {fileID: 0}
    - target: {fileID: 1331631917399612064, guid: 0edec4a7c1b49429db49bbd80422e2d2,
        type: 3}
      propertyPath: m_Size.y
      value: 0.33847713
      objectReference: {fileID: 0}
    - target: {fileID: 4024282441838093718, guid: 0edec4a7c1b49429db49bbd80422e2d2,
        type: 3}
      propertyPath: m_Name
      value: PlayerLaserShredder
      objectReference: {fileID: 0}
    - target: {fileID: 4439424451211208560, guid: 0edec4a7c1b49429db49bbd80422e2d2,
        type: 3}
      propertyPath: m_LocalPosition.x
      value: 0
      objectReference: {fileID: 0}
    - target: {fileID: 4439424451211208560, guid: 0edec4a7c1b49429db49bbd80422e2d2,
        type: 3}
      propertyPath: m_LocalPosition.y
      value: 8.39
      objectReference: {fileID: 0}
    - target: {fileID: 4439424451211208560, guid: 0edec4a7c1b49429db49bbd80422e2d2,
        type: 3}
      propertyPath: m_LocalPosition.z
      value: 0
      objectReference: {fileID: 0}
    - target: {fileID: 4439424451211208560, guid: 0edec4a7c1b49429db49bbd80422e2d2,
        type: 3}
      propertyPath: m_LocalRotation.x
      value: 0
      objectReference: {fileID: 0}
    - target: {fileID: 4439424451211208560, guid: 0edec4a7c1b49429db49bbd80422e2d2,
        type: 3}
      propertyPath: m_LocalRotation.y
      value: 0
      objectReference: {fileID: 0}
    - target: {fileID: 4439424451211208560, guid: 0edec4a7c1b49429db49bbd80422e2d2,
        type: 3}
      propertyPath: m_LocalRotation.z
      value: 0
      objectReference: {fileID: 0}
    - target: {fileID: 4439424451211208560, guid: 0edec4a7c1b49429db49bbd80422e2d2,
        type: 3}
      propertyPath: m_LocalRotation.w
      value: 1
      objectReference: {fileID: 0}
    - target: {fileID: 4439424451211208560, guid: 0edec4a7c1b49429db49bbd80422e2d2,
        type: 3}
      propertyPath: m_RootOrder
      value: 6
      objectReference: {fileID: 0}
    - target: {fileID: 4439424451211208560, guid: 0edec4a7c1b49429db49bbd80422e2d2,
        type: 3}
      propertyPath: m_LocalEulerAnglesHint.x
      value: 0
      objectReference: {fileID: 0}
    - target: {fileID: 4439424451211208560, guid: 0edec4a7c1b49429db49bbd80422e2d2,
        type: 3}
      propertyPath: m_LocalEulerAnglesHint.y
      value: 0
      objectReference: {fileID: 0}
    - target: {fileID: 4439424451211208560, guid: 0edec4a7c1b49429db49bbd80422e2d2,
        type: 3}
      propertyPath: m_LocalEulerAnglesHint.z
      value: 0
      objectReference: {fileID: 0}
    m_RemovedComponents: []
  m_SourcePrefab: {fileID: 100100000, guid: 0edec4a7c1b49429db49bbd80422e2d2, type: 3}
